{
  "repo": {
    "timestamp": 1644776548000,
    "version": 20000,
    "name": "KekHunter archive/unsigned repository",
    "icon": "icons/base_icon.png",
    "description": "The repository of older versions of packages from the main KekStore repository.",
    "address": "https://gitlab.com/kekhunteros/kekstore/-/raw/master/archive"
  },
  "requests": {
    "install": [],
    "uninstall": []
  },
  "apps": [],
  "packages": {}
}