{
  "commandLine": [
    "/usr/bin/fdroid update",
    "--pretty"
  ],
  "fdroiddata": {
    "commitId": "9d80c95135d844d932e6bf5d32d1acc620aca8f9",
    "isDirty": true,
    "modifiedFiles": [
      "archive/index-v1.jar",
      "archive/index-v1.json",
      "archive/index.jar",
      "archive/index.xml",
      "metadata/com.zalexdev.stryker/en-US/description.txt",
      "repo/index-v1.jar",
      "repo/index-v1.json",
      "repo/index.jar",
      "repo/index.xml",
      "repo/status/running.json",
      "repo/status/update.json"
    ],
    "untrackedFiles": []
  },
  "startTimestamp": 1644769348000,
  "subcommand": "update"
}